/* XPM */
static char * DIRECTORY_OPEN_XPM[] = {
"16 16 34 1",
"       c None",
".      c #000000",
"+      c #B6BB9A",
"@      c #9A9D82",
"#      c #9DA285",
"$      c #858871",
"%      c #A9AC97",
"&      c #90937A",
"*      c #A1A588",
"=      c #8D9178",
"-      c #81846F",
";      c #696B5A",
">      c #595B4C",
",      c #313229",
"'      c #868972",
")      c #DBDEC5",
"!      c #DFE2CD",
"~      c #CED3B2",
"{      c #505144",
"]      c #606152",
"^      c #E3E5D4",
"/      c #C7CDA4",
"(      c #A5AA85",
"_      c #C3C99E",
":      c #55574A",
"<      c #D6D8C9",
"[      c #787C61",
"}      c #353535",
"|      c #A0A487",
"1      c #4D4F44",
"2      c #D7DBC0",
"3      c #686B54",
"4      c #B7BAA3",
"5      c #8A8F70",
"                ",
"                ",
"    ....        ",
"   .+@+@.       ",
"  .#$#$#$...... ",
"  .%&*&*&*=-&-;.",
" ...........>,'.",
".)!~!~!~!~!~.{].",
".^/(_(_(_(_(.{:.",
" .<_(_(_(_(_[.:.",
" }!|_(_(_(_(_.1.",
"  }2(_(_(_(_(3..",
"  .4(5(5(5(5(5..",
"   ............ ",
"                ",
"                "};
