/* XPM */
static char * function_xpm[] = {
"20 19 6 1",
" 	c None",
".	c #000000",
"+	c #0C3005",
"@	c #4FC637",
"#	c #24910E",
"$	c #269E0E",
"                    ",
"                    ",
"                    ",
"                    ",
"                    ",
"       .......      ",
" +++  .@@@@@@.      ",
"     .@@@@@@..      ",
" ++ .@@@@@@.#.      ",
"    .......##.      ",
"    .$$$$$.##.      ",
"    .$$$$$.#.       ",
"    .$$$$$..        ",
"    .......         ",
"                    ",
"                    ",
"                    ",
"                    ",
"                    "};
