/* XPM */
static char * globals_xpm[] = {
"20 19 87 1",
" 	c None",
".	c #125D79",
"+	c #0E5371",
"@	c #0C625C",
"#	c #0D6757",
"$	c #77309B",
"%	c #196B7B",
"&	c #0F3A8A",
"*	c #0D5B62",
"=	c #0A8831",
"-	c #099422",
";	c #099423",
">	c #0B8835",
",	c #0F784E",
"'	c #106D5C",
")	c #18746E",
"!	c #102D95",
"~	c #0F3D82",
"{	c #0B7E3B",
"]	c #099621",
"^	c #099028",
"/	c #09971F",
"(	c #0A9427",
"_	c #0E8E39",
":	c #108744",
"<	c #107555",
"[	c #115084",
"}	c #102799",
"|	c #0F358C",
"1	c #0E566A",
"2	c #0C7549",
"3	c #0D7949",
"4	c #0C8E33",
"5	c #0E9730",
"6	c #0F9C30",
"7	c #109736",
"8	c #116E64",
"9	c #0E3D81",
"0	c #0F378A",
"a	c #10467E",
"b	c #105C6A",
"c	c #107554",
"d	c #108C3F",
"e	c #109D31",
"f	c #11A32C",
"g	c #107159",
"h	c #0C5467",
"i	c #0A8137",
"j	c #0E4D71",
"k	c #0F447F",
"l	c #10596D",
"m	c #107158",
"n	c #0C5F5D",
"o	c #09991E",
"p	c #0B6C4E",
"q	c #0E427E",
"r	c #105174",
"s	c #106562",
"t	c #107950",
"u	c #106564",
"v	c #0E6664",
"w	c #099620",
"x	c #098333",
"y	c #0C5369",
"z	c #0E4B77",
"A	c #0F576E",
"B	c #11646E",
"C	c #098433",
"D	c #098A2C",
"E	c #0A793F",
"F	c #0D5865",
"G	c #0F4979",
"H	c #105373",
"I	c #098335",
"J	c #0A7D3B",
"K	c #0D526A",
"L	c #0F3B85",
"M	c #103F84",
"N	c #104480",
"O	c #104A7C",
"P	c #196F75",
"Q	c #115E74",
"R	c #0E3E87",
"S	c #0F2C94",
"T	c #103091",
"U	c #104286",
"V	c #135E79",
"                    ",
"                    ",
"                    ",
"                    ",
"                    ",
"       .+@#$        ",
"     %&*=-;>,')     ",
"     !~{]^/(_:<     ",
"    [}|1234567:8    ",
"    |90abcdefedg    ",
"    hijklm:7e7:m    ",
"    nopqrst:d:tu    ",
"    vwxyzAsmcmsB    ",
"     CDEFGrlblH     ",
"      IJKLMNaOP     ",
"       QRSTUV       ",
"                    ",
"                    ",
"                    "};
