/* XPM */
static char * variables_xpm[] = {
"20 19 10 1",
" 	c None",
".	c #1003BC",
"+	c #EDE66D",
"@	c #EDEAB1",
"#	c #1F15A5",
"$	c #6A8AE8",
"%	c #CDCAF7",
"&	c #160E7C",
"*	c #D3CA17",
"=	c #8B8C6B",
"                    ",
"                    ",
"                    ",
"                    ",
"                    ",
"       .....        ",
"      .+@@@@.       ",
"     .++#$%@@.      ",
"     .+&&##$@.      ",
"     .*+&&&@@.=     ",
"      .*++@@.==     ",
"       .....==      ",
"        =====       ",
"                    ",
"                    ",
"                    ",
"                    ",
"                    ",
"                    "};
